<svg viewBox="0 0 52 52" fill="none">
<path
    d="M39.8126 52H27.2188C20.4986 52 15.0313 46.5327 15.0313 39.8125V36.9688H12.1876C5.46732 36.9687 0 31.5014 0 24.7812V12.1874C0 5.46726 5.46732 -6.10352e-05 12.1875 -6.10352e-05H24.7813C31.5015 -6.10352e-05 36.9688 5.46726 36.9688 12.1874V15.0312H39.8125C46.5327 15.0312 52 20.4985 52 27.2187V39.8124C52.0001 46.5327 46.5328 52 39.8126 52ZM12.1875 4.06244C7.70735 4.06244 4.0625 7.70729 4.0625 12.1874V24.7812C4.0625 29.2614 7.70735 32.9062 12.1875 32.9062H17.0625C18.1844 32.9062 19.0938 33.8156 19.0938 34.9375V39.8125C19.0938 44.2927 22.7387 47.9375 27.2188 47.9375H39.8126C44.2927 47.9375 47.9376 44.2927 47.9376 39.8125V27.2188C47.9376 22.7386 44.2927 19.0938 39.8126 19.0938H34.9376C33.8157 19.0938 32.9063 18.1843 32.9063 17.0625V12.1874C32.9063 7.70729 29.2614 4.06244 24.7813 4.06244H12.1875ZM19.0938 27.2188C19.0938 22.7386 22.7387 19.0938 27.2188 19.0938C28.3407 19.0938 29.2501 18.1843 29.2501 17.0625C29.2501 15.9406 28.3407 15.0312 27.2188 15.0312C20.4986 15.0312 15.0313 20.4985 15.0313 27.2187C15.0313 28.3405 15.9408 29.25 17.0626 29.25C18.1845 29.25 19.0938 28.3406 19.0938 27.2188ZM36.9688 24.7812C36.9688 23.6593 36.0593 22.7499 34.9375 22.7499C33.8156 22.7499 32.9062 23.6593 32.9062 24.7812C32.9062 29.2614 29.2613 32.9062 24.7812 32.9062C23.6593 32.9062 22.7499 33.8156 22.7499 34.9375C22.7499 36.0594 23.6593 36.9688 24.7812 36.9688C31.5015 36.9687 36.9688 31.5014 36.9688 24.7812Z"
    fill="#93C5FD"
  />
</svg>
